{
    "testPlanName": "docker",
    "tests": [
        {
            "testName": "Benchmark.Dhrystone",
            "spec": "100M",
            "timeout": "3m",
            "extralinks": {"plot": "plot.png"}
        },
        {
            "testName": "Benchmark.dbench",
            "spec": "testdir",
            "timeout": "3m",
            "extralinks": {"plot": "plot.png"}
        },
        {
            "testName": "Benchmark.hackbench",
            "spec": "default",
            "timeout": "3m",
            "extralinks": {"plot": "plot.png"}
        },
        {
            "testName": "Benchmark.Whetstone",
            "spec": "default",
            "timeout": "3m",
            "extralinks": {"plot": "plot.png"}
        },
        {
            "testName": "Benchmark.linpack",
            "spec": "default",
            "timeout": "3m",
            "extralinks": {"plot": "plot.png"}
        },
        {
            "testName": "Benchmark.bonnie",
            "spec": "noroot",
            "timeout": "3m",
            "extralinks": {"plot": "plot.png"}
        },
        {
            "testName": "Benchmark.ffsb",
            "spec": "default",
            "timeout": "3m",
            "extralinks": {"plot": "plot.png"}
        },
        {
            "testName": "Benchmark.fio",
            "spec": "default",
            "timeout": "3m",
            "extralinks": {"plot": "plot.png"}
        },
        {
            "testName": "Benchmark.IOzone",
            "spec": "nopread",
            "timeout": "3m",
            "extralinks": {"plot": "plot.png", "xlsx": "results.xlsx"}
        },
        {
            "testName": "Benchmark.tiobench",
            "spec": "default",
            "timeout": "10m",
            "extralinks": {"plot": "plot.png"}
        },
        {
            "testName": "Benchmark.netperf",
            "spec": "docker",
            "timeout": "10m",
            "extralinks": {"plot": "plot.png"}
        },
        {
            "testName": "Functional.LTP",
            "spec": "default",
            "timeout": "100m",
            "extralinks": {"xlsx": "results.xlsx"}
        },
        {
            "testName": "Functional.aiostress",
            "spec": "default",
            "timeout": "3m"
        },
        {
            "testName": "Functional.bzip2",
            "spec": "default",
            "timeout": "3m"
        },
        {
            "testName": "Functional.glib",
            "spec": "default",
            "timeout": "20m"
        },
        {
            "testName": "Functional.ipv6connect",
            "spec": "default",
            "timeout": "3m"
        },
        {
            "testName": "Functional.linus_stress",
            "spec": "default",
            "timeout": "20m"
        },
        {
            "testName": "Functional.rmaptest",
            "spec": "default",
            "timeout": "15m"
        },
        {
            "testName": "Functional.stress",
            "spec": "default",
            "timeout": "3m"
        },
        {
            "testName": "Functional.bc",
            "spec": "default",
            "timeout": "3m"
        },
        {
            "testName": "Functional.zlib",
            "spec": "default",
            "timeout": "3m"
        },
        {
            "testName": "Functional.hello_world",
            "spec": "default",
            "timeout": "3m"
        },
        {
            "testName": "Functional.netperf",
            "spec": "docker",
            "timeout": "10m"
        }
    ]
}
